[{
	"stId": "046_rockon.png",
	"catId": "humanoid2"
}, {
	"stId": "006_angry.png",
	"catId": "humanoid"
}, {
	"stId": "008_shocked.png",
	"catId": "humanoid"
}, {
	"stId": "035_angry.png",
	"catId": "humanoid2"
}, {
	"stId": "013_flyingkiss.png",
	"catId": "smileyexpressions"
}, {
	"stId": "015_rofl.png",
	"catId": "smileyexpressions"
}, {
	"stId": "024_hungry.png",
	"catId": "smileyexpressions"
}, {
	"stId": "018_facepalm.png",
	"catId": "smileyexpressions"
}, {
	"stId": "001_boo_aww.png",
	"catId": "boo"
}, {
	"stId": "046_boo_laugh.png",
	"catId": "boo"
}, {
	"stId": "052_boo_yum.png",
	"catId": "boo"
}, {
	"stId": "016_boo_congrats.png",
	"catId": "boo"
}, {
	"stId": "025_cheers.png",
	"catId": "expressions"
}, {
	"stId": "002_lol.png",
	"catId": "expressions"
}, {
	"stId": "005_omg.png",
	"catId": "expressions"
}, {
	"stId": "109_goodluck.png",
	"catId": "expressions"
}, {
	"stId": "023_heart.png",
	"catId": "expressions"
}, {
	"stId": "060_awww.png",
	"catId": "expressions"
}, {
	"stId": "008_xoxo.png",
	"catId": "expressions"
}, {
	"stId": "101_miss_you.png",
	"catId": "expressions"
}, {
	"stId": "005_bro_swag.png",
	"catId": "brocode"
}, {
	"stId": "002_comic_epic.png",
	"catId": "comictypo"
}, {
	"stId": "005_comic_wow.png",
	"catId": "comictypo"
}, {
	"stId": "004_comic_woah.png",
	"catId": "comictypo"
}, {
	"stId": "002_bhai_bhaibhai.png",
	"catId": "bhaicode"
}, {
	"stId": "009_bhai_sahihaibhai.png",
	"catId": "bhaicode"
}, {
	"stId": "002_baba_babajilovesit.png",
	"catId": "coolbaba"
}, {
	"stId": "037_ds_kyabaathai.png",
	"catId": "desiswag"
}, {
	"stId": "007_gjtv_waahwaah.png",
	"catId": "gujjushows"
}, {
	"stId": "024_masterji_shabaash.png",
	"catId": "masterji"
}, {
	"stId": "020_poof_awesome.png",
	"catId": "poofy"
}, {
	"stId": "035_poof_enjoy.png",
	"catId": "poofy"
}]
